\babel@toc {greek}{}
\contentsline {section}{Εισαγωγή}{2}{Doc-Start}%
\contentsline {subsection}{Τεχνικές Λεπτομέρειες}{2}{section*.1}%
\contentsline {subsubsection}{Συγγραφή}{2}{section*.1}%
\contentsline {subsubsection}{Προγραμματισμός}{2}{section*.1}%
\contentsline {subsection}{Εξηγήσεις για τον φάκελο παραδοτέου}{2}{section*.1}%
\contentsline {subsection}{Αποθετήριο της εργασίας}{3}{section*.1}%
\contentsline {section}{\numberline {1}Άσκηση Α}{4}{section.1}%
\contentsline {subsection}{\numberline {1.1}Απόσταση Levenstein δύο λέξεων}{4}{subsection.1.1}%
\contentsline {subsubsection}{\numberline {1.1.1}\begingroup \normalfont \raisebox {-0.3ex}{ \includesvg [width=\textwidth ,height=16pt]{../svg/code} } \hspace {-16pt} \endgroup {} Κώδικας}{4}{subsubsection.1.1.1}%
\contentsline {subsubsection}{\numberline {1.1.2}\begingroup \normalfont \raisebox {-0.3ex}{ \includesvg [width=\textwidth ,height=14pt]{../svg/terminal} } \hspace {-16pt} \endgroup {} Αποτέλεσμα στο τερματικό}{4}{subsubsection.1.1.2}%
\contentsline {subsubsection}{\numberline {1.1.3}\begingroup \normalfont \raisebox {-0.15ex}{ \includesvg [width=\textwidth ,height=12pt]{../svg/words} } \hspace {-16pt} \endgroup {} Παρατηρήσεις}{5}{subsubsection.1.1.3}%
\contentsline {subsection}{\numberline {1.2}Παραπάνω παραδείγματα}{5}{subsection.1.2}%
\contentsline {subsubsection}{\numberline {1.2.1}\begingroup \normalfont \raisebox {-0.3ex}{ \includesvg [width=\textwidth ,height=16pt]{../svg/code} } \hspace {-16pt} \endgroup {} Κώδικας}{5}{subsubsection.1.2.1}%
\contentsline {subsubsection}{\numberline {1.2.2}\begingroup \normalfont \raisebox {-0.3ex}{ \includesvg [width=\textwidth ,height=14pt]{../svg/terminal} } \hspace {-16pt} \endgroup {} Αποτέλεσμα στο τερματικό}{6}{subsubsection.1.2.2}%
\contentsline {subsubsection}{\numberline {1.2.3}\begingroup \normalfont \raisebox {-0.15ex}{ \includesvg [width=\textwidth ,height=12pt]{../svg/words} } \hspace {-16pt} \endgroup {} Παρατηρήσεις}{6}{subsubsection.1.2.3}%
\contentsline {section}{\numberline {2}Άσκηση Β}{7}{section.2}%
\contentsline {subsection}{\numberline {2.1}Ενεργή διόρθωση εισαγώμενων λέξεων}{7}{subsection.2.1}%
\contentsline {subsubsection}{\numberline {2.1.1}\begingroup \normalfont \raisebox {-0.3ex}{ \includesvg [width=\textwidth ,height=16pt]{../svg/code} } \hspace {-16pt} \endgroup {} Κώδικας}{7}{subsubsection.2.1.1}%
\contentsline {subsubsection}{\numberline {2.1.2}\begingroup \normalfont \raisebox {-0.3ex}{ \includesvg [width=\textwidth ,height=14pt]{../svg/terminal} } \hspace {-16pt} \endgroup {} Αποτέλεσμα στο τερματικό}{8}{subsubsection.2.1.2}%
\contentsline {subsubsection}{\numberline {2.1.3}\begingroup \normalfont \raisebox {-0.15ex}{ \includesvg [width=\textwidth ,height=12pt]{../svg/words} } \hspace {-16pt} \endgroup {} Παρατηρήσεις}{9}{subsubsection.2.1.3}%
\contentsline {section}{\begingroup \normalfont \raisebox {-0.2ex}{ \includesvg [width=\textwidth ,height=14pt]{../svg/info} } \hspace {-12pt} \endgroup {} Αναφορές}{11}{lstnumber.-7.21}%
