\relax 
\providecommand\hyper@newdestlabel[2]{}
\providecommand\babel@aux[2]{}
\@nameuse{bbl@beforestart}
\providecommand\HyperFirstAtBeginDocument{\AtBeginDocument}
\HyperFirstAtBeginDocument{\ifx\hyper@anchor\@undefined
\global\let\oldcontentsline\contentsline
\gdef\contentsline#1#2#3#4{\oldcontentsline{#1}{#2}{#3}}
\global\let\oldnewlabel\newlabel
\gdef\newlabel#1#2{\newlabelxx{#1}#2}
\gdef\newlabelxx#1#2#3#4#5#6{\oldnewlabel{#1}{{#2}{#3}}}
\AtEndDocument{\ifx\hyper@anchor\@undefined
\let\contentsline\oldcontentsline
\let\newlabel\oldnewlabel
\fi}
\fi}
\global\let\hyper@last\relax 
\gdef\HyperFirstAtBeginDocument#1{#1}
\providecommand*\HyPL@Entry[1]{}
\HyPL@Entry{0<</S/D>>}
\babel@aux{greek}{}
\HyPL@Entry{2<</S/D>>}
\@writefile{toc}{\contentsline {section}{Εισαγωγή}{2}{Doc-Start}\protected@file@percent }
\@writefile{toc}{\contentsline {subsection}{Τεχνικές Λεπτομέρειες}{2}{section*.1}\protected@file@percent }
\@writefile{toc}{\contentsline {subsubsection}{Συγγραφή}{2}{section*.1}\protected@file@percent }
\@writefile{toc}{\contentsline {subsubsection}{Προγραμματισμός}{2}{section*.1}\protected@file@percent }
\@writefile{toc}{\contentsline {subsection}{Εξηγήσεις για τον φάκελο παραδοτέου}{2}{section*.1}\protected@file@percent }
\@writefile{toc}{\contentsline {subsection}{Αποθετήριο της εργασίας}{3}{section*.1}\protected@file@percent }
\@writefile{toc}{\contentsline {section}{\numberline {1}Άσκηση Α}{4}{section.1}\protected@file@percent }
\@writefile{toc}{\contentsline {subsection}{\numberline {1.1}Απόσταση Levenstein δύο λέξεων}{4}{subsection.1.1}\protected@file@percent }
\@writefile{toc}{\contentsline {subsubsection}{\numberline {1.1.1}\begingroup \normalfont  \raisebox  {-0.3ex}{ \includesvg [width=\textwidth ,height=16pt]{../svg/code} } \hspace  {-16pt} \endgroup {} Κώδικας}{4}{subsubsection.1.1.1}\protected@file@percent }
\@writefile{toc}{\contentsline {subsubsection}{\numberline {1.1.2}\begingroup \normalfont  \raisebox  {-0.3ex}{ \includesvg [width=\textwidth ,height=14pt]{../svg/terminal} } \hspace  {-16pt} \endgroup {} Αποτέλεσμα στο τερματικό}{4}{subsubsection.1.1.2}\protected@file@percent }
\@writefile{toc}{\contentsline {subsubsection}{\numberline {1.1.3}\begingroup \normalfont  \raisebox  {-0.15ex}{ \includesvg [width=\textwidth ,height=12pt]{../svg/words} } \hspace  {-16pt} \endgroup {} Παρατηρήσεις}{5}{subsubsection.1.1.3}\protected@file@percent }
\@writefile{toc}{\contentsline {subsection}{\numberline {1.2}Παραπάνω παραδείγματα}{5}{subsection.1.2}\protected@file@percent }
\@writefile{toc}{\contentsline {subsubsection}{\numberline {1.2.1}\begingroup \normalfont  \raisebox  {-0.3ex}{ \includesvg [width=\textwidth ,height=16pt]{../svg/code} } \hspace  {-16pt} \endgroup {} Κώδικας}{5}{subsubsection.1.2.1}\protected@file@percent }
\@writefile{toc}{\contentsline {subsubsection}{\numberline {1.2.2}\begingroup \normalfont  \raisebox  {-0.3ex}{ \includesvg [width=\textwidth ,height=14pt]{../svg/terminal} } \hspace  {-16pt} \endgroup {} Αποτέλεσμα στο τερματικό}{6}{subsubsection.1.2.2}\protected@file@percent }
\@writefile{toc}{\contentsline {subsubsection}{\numberline {1.2.3}\begingroup \normalfont  \raisebox  {-0.15ex}{ \includesvg [width=\textwidth ,height=12pt]{../svg/words} } \hspace  {-16pt} \endgroup {} Παρατηρήσεις}{6}{subsubsection.1.2.3}\protected@file@percent }
\citation{geeks}
\citation{repo}
\@writefile{toc}{\contentsline {section}{\numberline {2}Άσκηση Β}{7}{section.2}\protected@file@percent }
\@writefile{toc}{\contentsline {subsection}{\numberline {2.1}Ενεργή διόρθωση εισαγώμενων λέξεων}{7}{subsection.2.1}\protected@file@percent }
\@writefile{toc}{\contentsline {subsubsection}{\numberline {2.1.1}\begingroup \normalfont  \raisebox  {-0.3ex}{ \includesvg [width=\textwidth ,height=16pt]{../svg/code} } \hspace  {-16pt} \endgroup {} Κώδικας}{7}{subsubsection.2.1.1}\protected@file@percent }
\@writefile{toc}{\contentsline {subsubsection}{\numberline {2.1.2}\begingroup \normalfont  \raisebox  {-0.3ex}{ \includesvg [width=\textwidth ,height=14pt]{../svg/terminal} } \hspace  {-16pt} \endgroup {} Αποτέλεσμα στο τερματικό}{8}{subsubsection.2.1.2}\protected@file@percent }
\@writefile{toc}{\contentsline {subsubsection}{\numberline {2.1.3}\begingroup \normalfont  \raisebox  {-0.15ex}{ \includesvg [width=\textwidth ,height=12pt]{../svg/words} } \hspace  {-16pt} \endgroup {} Παρατηρήσεις}{9}{subsubsection.2.1.3}\protected@file@percent }
\bibcite{intro_book}{1}
\bibcite{natural_book}{2}
\bibcite{geeks}{3}
\bibcite{repo}{4}
\@writefile{toc}{\contentsline {section}{\begingroup \normalfont  \raisebox  {-0.2ex}{ \includesvg [width=\textwidth ,height=14pt]{../svg/info} } \hspace  {-12pt} \endgroup {} Αναφορές}{11}{lstnumber.-7.21}\protected@file@percent }
\gdef\svg@ink@ver@settings{{\m@ne }{inkscape}{1}}
\gdef \@abspage@last{13}
