\relax 
\providecommand\hyper@newdestlabel[2]{}
\providecommand\babel@aux[2]{}
\@nameuse{bbl@beforestart}
\providecommand\HyperFirstAtBeginDocument{\AtBeginDocument}
\HyperFirstAtBeginDocument{\ifx\hyper@anchor\@undefined
\global\let\oldcontentsline\contentsline
\gdef\contentsline#1#2#3#4{\oldcontentsline{#1}{#2}{#3}}
\global\let\oldnewlabel\newlabel
\gdef\newlabel#1#2{\newlabelxx{#1}#2}
\gdef\newlabelxx#1#2#3#4#5#6{\oldnewlabel{#1}{{#2}{#3}}}
\AtEndDocument{\ifx\hyper@anchor\@undefined
\let\contentsline\oldcontentsline
\let\newlabel\oldnewlabel
\fi}
\fi}
\global\let\hyper@last\relax 
\gdef\HyperFirstAtBeginDocument#1{#1}
\providecommand*\HyPL@Entry[1]{}
\HyPL@Entry{0<</S/D>>}
\babel@aux{greek}{}
\HyPL@Entry{1<</S/D>>}
\@writefile{toc}{\contentsline {section}{Εισαγωγή}{3}{Doc-Start}\protected@file@percent }
\@writefile{toc}{\contentsline {subsection}{Τεχνικές Λεπτομέρειες}{3}{section*.1}\protected@file@percent }
\@writefile{toc}{\contentsline {subsubsection}{Συγγραφή}{3}{section*.1}\protected@file@percent }
\@writefile{toc}{\contentsline {subsubsection}{Προγραμματισμός}{3}{section*.1}\protected@file@percent }
\@writefile{toc}{\contentsline {subsection}{Εξηγήσεις για τον φάκελο παραδοτέου}{3}{section*.1}\protected@file@percent }
\@writefile{toc}{\contentsline {subsection}{Αποθετήριο της εργασίας}{3}{section*.1}\protected@file@percent }
\citation{montypython}
\@writefile{toc}{\contentsline {section}{\numberline {1}Απλά Στατιστικά}{4}{section.1}\protected@file@percent }
\@writefile{toc}{\contentsline {subsection}{\numberline {1.1}Ερώτηση 1 - Ποσοστιαία χρήση λέξεων}{4}{subsection.1.1}\protected@file@percent }
\@writefile{toc}{\contentsline {subsubsection}{\numberline {1.1.1}Αποτελέσματα κώδικα}{4}{subsubsection.1.1.1}\protected@file@percent }
\@writefile{toc}{\contentsline {subsubsection}{\numberline {1.1.2}Παρατηρήσεις}{5}{subsubsection.1.1.2}\protected@file@percent }
\@writefile{toc}{\contentsline {paragraph}{Ανάλυση:}{5}{subsubsection.1.1.2}\protected@file@percent }
\@writefile{toc}{\contentsline {paragraph}{Συμπεράσματα:}{5}{subsubsection.1.1.2}\protected@file@percent }
\@writefile{toc}{\contentsline {subsection}{\numberline {1.2}Ερώτηση 2 - Γράφημα χρήσης λέξεων Moby Dick}{6}{subsection.1.2}\protected@file@percent }
\@writefile{toc}{\contentsline {subsubsection}{\numberline {1.2.1}Παρατηρήσεις}{7}{subsubsection.1.2.1}\protected@file@percent }
\@writefile{toc}{\contentsline {paragraph}{Ανάλυση:}{7}{subsubsection.1.2.1}\protected@file@percent }
\@writefile{toc}{\contentsline {paragraph}{Συμπεράσματα:}{7}{subsubsection.1.2.1}\protected@file@percent }
\@writefile{toc}{\contentsline {subsection}{\numberline {1.3}Ερώτηση 3 - Γράφημα χρήσης λέξεων Monty Python}{8}{subsection.1.3}\protected@file@percent }
\citation{arthur}
\citation{moby}
\@writefile{toc}{\contentsline {subsubsection}{\numberline {1.3.1}Παρατηρήσεις}{9}{subsubsection.1.3.1}\protected@file@percent }
\@writefile{toc}{\contentsline {paragraph}{Ανάλυση:}{9}{subsubsection.1.3.1}\protected@file@percent }
\@writefile{toc}{\contentsline {paragraph}{Συμπεράσματα:}{9}{subsubsection.1.3.1}\protected@file@percent }
\citation{moby}
\@writefile{toc}{\contentsline {section}{\numberline {2}Κανονικοποίηση Κειμένου}{10}{section.2}\protected@file@percent }
\@writefile{toc}{\contentsline {subsection}{\numberline {2.1}Ερώτηση 4 - Απλή κανονικοποίηση}{10}{subsection.2.1}\protected@file@percent }
\@writefile{toc}{\contentsline {subsubsection}{\numberline {2.1.1}Παρατηρήσεις}{10}{subsubsection.2.1.1}\protected@file@percent }
\@writefile{toc}{\contentsline {paragraph}{Ανάλυση:}{10}{subsubsection.2.1.1}\protected@file@percent }
\@writefile{toc}{\contentsline {paragraph}{Συμπεράσματα:}{10}{subsubsection.2.1.1}\protected@file@percent }
\citation{randomcase}
\@writefile{toc}{\contentsline {subsection}{\numberline {2.2}Ερώτηση 5 - Άλλες τεχνικές κανονικοποίησης}{11}{subsection.2.2}\protected@file@percent }
\@writefile{toc}{\contentsline {subsubsection}{\numberline {2.2.1}Παρατηρήσεις}{12}{subsubsection.2.2.1}\protected@file@percent }
\@writefile{toc}{\contentsline {paragraph}{Ανάλυση:}{12}{subsubsection.2.2.1}\protected@file@percent }
\@writefile{toc}{\contentsline {paragraph}{Συμπεράσματα:}{14}{subsubsection.2.2.1}\protected@file@percent }
\citation{copyleft}
\citation{sense}
\@writefile{toc}{\contentsline {section}{\numberline {3}Tokenization}{15}{section.3}\protected@file@percent }
\@writefile{toc}{\contentsline {subsection}{\numberline {3.1}Ερώτηση 6 - Μέθοδοι Tokenization}{15}{subsection.3.1}\protected@file@percent }
\@writefile{toc}{\contentsline {subsubsection}{\numberline {3.1.1}Παρατηρήσεις}{16}{subsubsection.3.1.1}\protected@file@percent }
\@writefile{toc}{\contentsline {paragraph}{Ανάλυση:}{16}{subsubsection.3.1.1}\protected@file@percent }
\@writefile{toc}{\contentsline {paragraph}{Συμπεράσματα:}{19}{subsubsection.3.1.1}\protected@file@percent }
\@writefile{toc}{\contentsline {section}{\numberline {4}Αφαίρεση σημείων στίξης και προθημάτων (stop words)}{20}{section.4}\protected@file@percent }
\@writefile{toc}{\contentsline {subsection}{\numberline {4.1}Ερώτηση 7 - Αναφορά στα Stopwords}{20}{subsection.4.1}\protected@file@percent }
\@writefile{toc}{\contentsline {subsubsection}{\numberline {4.1.1}Παρατηρήσεις}{20}{subsubsection.4.1.1}\protected@file@percent }
\citation{sense}
\citation{copyleft}
\@writefile{toc}{\contentsline {subsection}{\numberline {4.2}Ερώτηση 8 - Πλήρης καθαρισμός κειμένου}{21}{subsection.4.2}\protected@file@percent }
\@writefile{toc}{\contentsline {subsubsection}{\numberline {4.2.1}Παρατηρήσεις}{21}{subsubsection.4.2.1}\protected@file@percent }
\@writefile{toc}{\contentsline {paragraph}{Ανάλυση:}{21}{subsubsection.4.2.1}\protected@file@percent }
\@writefile{toc}{\contentsline {paragraph}{Συμπέρασματα:}{23}{subsubsection.4.2.1}\protected@file@percent }
\citation{sense}
\@writefile{toc}{\contentsline {subsection}{\numberline {4.3}Ερώτηση 9 - Σύγκριση Αρχικών/Τελικών Αποτελεσμάτων}{24}{subsection.4.3}\protected@file@percent }
\@writefile{toc}{\contentsline {subsubsection}{\numberline {4.3.1}Τελική Ανάλυση Αποτελεσμάτων}{24}{subsubsection.4.3.1}\protected@file@percent }
\@writefile{toc}{\contentsline {subsubsection}{\numberline {4.3.2}Συμπεράσματα εργασίας}{26}{subsubsection.4.3.2}\protected@file@percent }
\bibcite{montypython}{1}
\bibcite{arthur}{2}
\bibcite{moby}{3}
\bibcite{randomcase}{4}
\bibcite{copyleft}{5}
\bibcite{sense}{6}
\@writefile{toc}{\contentsline {section}{Αναφορές}{27}{subsubsection.4.3.2}\protected@file@percent }
\gdef \@abspage@last{28}
