\babel@toc {greek}{}
\contentsline {section}{\numberline {1}Ερώτηση 0.5}{2}{section.1}%
\contentsline {section}{\numberline {2}Ερώτηση 1}{3}{section.2}%
\contentsline {section}{\numberline {3}Ερώτηση 2}{4}{section.3}%
\contentsline {section}{\numberline {4}Ερώτηση 3α}{6}{section.4}%
\contentsline {section}{\numberline {5}Ερώτηση 3β}{7}{section.5}%
\contentsline {section}{\numberline {6}Ερώτηση 4}{8}{section.6}%
\contentsline {section}{\numberline {7}Ερώτηση 5}{12}{section.7}%
\contentsline {section}{\numberline {8}Ερώτηση 6}{13}{section.8}%
\contentsline {section}{\numberline {9}Ερώτηση 7}{14}{section.9}%
\contentsline {section}{\numberline {10}Ερώτηση 7 bonus}{15}{section.10}%
