\relax 
\providecommand\hyper@newdestlabel[2]{}
\providecommand\babel@aux[2]{}
\@nameuse{bbl@beforestart}
\providecommand\HyperFirstAtBeginDocument{\AtBeginDocument}
\HyperFirstAtBeginDocument{\ifx\hyper@anchor\@undefined
\global\let\oldcontentsline\contentsline
\gdef\contentsline#1#2#3#4{\oldcontentsline{#1}{#2}{#3}}
\global\let\oldnewlabel\newlabel
\gdef\newlabel#1#2{\newlabelxx{#1}#2}
\gdef\newlabelxx#1#2#3#4#5#6{\oldnewlabel{#1}{{#2}{#3}}}
\AtEndDocument{\ifx\hyper@anchor\@undefined
\let\contentsline\oldcontentsline
\let\newlabel\oldnewlabel
\fi}
\fi}
\global\let\hyper@last\relax 
\gdef\HyperFirstAtBeginDocument#1{#1}
\providecommand*\HyPL@Entry[1]{}
\HyPL@Entry{0<</S/D>>}
\babel@aux{greek}{}
\@writefile{toc}{\contentsline {section}{\numberline {1}Ερώτηση 0.5}{2}{section.1}\protected@file@percent }
\@writefile{toc}{\contentsline {section}{\numberline {2}Ερώτηση 1}{3}{section.2}\protected@file@percent }
\@writefile{toc}{\contentsline {section}{\numberline {3}Ερώτηση 2}{4}{section.3}\protected@file@percent }
\@writefile{toc}{\contentsline {section}{\numberline {4}Ερώτηση 3α}{6}{section.4}\protected@file@percent }
\@writefile{toc}{\contentsline {section}{\numberline {5}Ερώτηση 3β}{7}{section.5}\protected@file@percent }
\@writefile{toc}{\contentsline {section}{\numberline {6}Ερώτηση 4}{8}{section.6}\protected@file@percent }
\@writefile{toc}{\contentsline {section}{\numberline {7}Ερώτηση 5}{12}{section.7}\protected@file@percent }
\@writefile{toc}{\contentsline {section}{\numberline {8}Ερώτηση 6}{13}{section.8}\protected@file@percent }
\@writefile{toc}{\contentsline {section}{\numberline {9}Ερώτηση 7}{14}{section.9}\protected@file@percent }
\@writefile{toc}{\contentsline {section}{\numberline {10}Ερώτηση 7 bonus}{15}{section.10}\protected@file@percent }
\gdef \@abspage@last{17}
